<svg xmlns="http://www.w3.org/2000/svg" viewBox="6079 3906 60 60">
  <defs>
    <style>
      .cls-1 {
        fill: #df5d5d;
      }

      .cls-2 {
        fill: none;
        stroke: #fff;
        stroke-width: 2px;
      }
    </style>
  </defs>
  <g id="Group_324" data-name="Group 324" transform="translate(4668 792)">
    <circle id="Ellipse_13" data-name="Ellipse 13" class="cls-1" cx="30" cy="30" r="30" transform="translate(1411 3114)"/>
    <g id="Group_322" data-name="Group 322" transform="translate(-1909.943 2026.564) rotate(-45)">
      <line id="Line_28" data-name="Line 28" class="cls-2" y1="20" transform="translate(1585.5 3147.5)"/>
      <line id="Line_29" data-name="Line 29" class="cls-2" x2="20" transform="translate(1566.5 3166.5)"/>
    </g>
  </g>
</svg>
